\relax 
\providecommand\HyperFirstAtBeginDocument{\AtBeginDocument}
\HyperFirstAtBeginDocument{\ifx\hyper@anchor\@undefined
\global\let\oldcontentsline\contentsline
\gdef\contentsline#1#2#3#4{\oldcontentsline{#1}{#2}{#3}}
\global\let\oldnewlabel\newlabel
\gdef\newlabel#1#2{\newlabelxx{#1}#2}
\gdef\newlabelxx#1#2#3#4#5#6{\oldnewlabel{#1}{{#2}{#3}}}
\AtEndDocument{\ifx\hyper@anchor\@undefined
\let\contentsline\oldcontentsline
\let\newlabel\oldnewlabel
\fi}
\fi}
\global\let\hyper@last\relax 
\gdef\HyperFirstAtBeginDocument#1{#1}
\providecommand\HyField@AuxAddToFields[1]{}
\@input{inside_cover.aux}
\@writefile{toc}{\contentsline {section}{LIST OF FIGURES}{iii}{section*.5}}
\@writefile{toc}{\contentsline {chapter}{\numberline {1}Introduction}{1}{chapter.1}}
\@writefile{lof}{\addvspace {10\p@ }}
\@writefile{lot}{\addvspace {10\p@ }}
\@writefile{toc}{\contentsline {section}{\numberline {1.1}Purpose}{1}{section.1.1}}
\@writefile{toc}{\contentsline {section}{\numberline {1.2}Document Conventions}{1}{section.1.2}}
\@writefile{toc}{\contentsline {section}{\numberline {1.3}Intended Audience and Reading Suggestions}{1}{section.1.3}}
\@writefile{toc}{\contentsline {section}{\numberline {1.4}Project Scope}{2}{section.1.4}}
\@writefile{toc}{\contentsline {section}{\numberline {1.5}References}{2}{section.1.5}}
\@writefile{toc}{\contentsline {chapter}{\numberline {2}Overal Description}{3}{chapter.2}}
\@writefile{lof}{\addvspace {10\p@ }}
\@writefile{lot}{\addvspace {10\p@ }}
\@writefile{toc}{\contentsline {section}{\numberline {2.1}Product Perspective}{3}{section.2.1}}
\@writefile{toc}{\contentsline {section}{\numberline {2.2}Product Features}{3}{section.2.2}}
\@writefile{toc}{\contentsline {section}{\numberline {2.3}User Classes and Characteristics}{3}{section.2.3}}
\@writefile{toc}{\contentsline {section}{\numberline {2.4}Operating Environment}{3}{section.2.4}}
\@writefile{toc}{\contentsline {section}{\numberline {2.5}Design and Implementation Constraints}{4}{section.2.5}}
\@writefile{toc}{\contentsline {section}{\numberline {2.6}User Documentation}{4}{section.2.6}}
\@writefile{toc}{\contentsline {section}{\numberline {2.7}Assumptions and Dependencies}{4}{section.2.7}}
\@writefile{toc}{\contentsline {chapter}{\numberline {3}System Features}{5}{chapter.3}}
\@writefile{lof}{\addvspace {10\p@ }}
\@writefile{lot}{\addvspace {10\p@ }}
\@writefile{toc}{\contentsline {section}{\numberline {3.1}System Feature 1}{5}{section.3.1}}
\@writefile{toc}{\contentsline {subsection}{\numberline {3.1.1}Description and Priority}{5}{subsection.3.1.1}}
\@writefile{toc}{\contentsline {subsection}{\numberline {3.1.2}Stimulus/Response Sequences}{5}{subsection.3.1.2}}
\@writefile{toc}{\contentsline {subsection}{\numberline {3.1.3}Functional Requirements}{5}{subsection.3.1.3}}
\@writefile{toc}{\contentsline {section}{\numberline {3.2}System Feature 2 (and so on)}{6}{section.3.2}}
\@writefile{toc}{\contentsline {chapter}{\numberline {4}External Interface Requirements}{7}{chapter.4}}
\@writefile{lof}{\addvspace {10\p@ }}
\@writefile{lot}{\addvspace {10\p@ }}
\@writefile{toc}{\contentsline {section}{\numberline {4.1}User Interfaces}{7}{section.4.1}}
\@writefile{toc}{\contentsline {section}{\numberline {4.2}Hardware Interfaces}{7}{section.4.2}}
\@writefile{toc}{\contentsline {section}{\numberline {4.3}Software Interfaces}{7}{section.4.3}}
\@writefile{toc}{\contentsline {section}{\numberline {4.4}Communications Interfaces}{7}{section.4.4}}
\@writefile{toc}{\contentsline {chapter}{\numberline {5}Other Nonfunctional Requirements}{9}{chapter.5}}
\@writefile{lof}{\addvspace {10\p@ }}
\@writefile{lot}{\addvspace {10\p@ }}
\@writefile{toc}{\contentsline {section}{\numberline {5.1}Performance Requirements}{9}{section.5.1}}
\@writefile{toc}{\contentsline {section}{\numberline {5.2}Safety Requirements}{9}{section.5.2}}
\@writefile{toc}{\contentsline {section}{\numberline {5.3}Security Requirements}{9}{section.5.3}}
\@writefile{toc}{\contentsline {section}{\numberline {5.4}Software Quality Attributes}{9}{section.5.4}}
\@writefile{toc}{\contentsline {chapter}{\numberline {6}Other Requirements}{10}{chapter.6}}
\@writefile{lof}{\addvspace {10\p@ }}
\@writefile{lot}{\addvspace {10\p@ }}
\@writefile{toc}{\contentsline {chapter}{\numberline {7}Sample Chapter}{11}{chapter.7}}
\@writefile{lof}{\addvspace {10\p@ }}
\@writefile{lot}{\addvspace {10\p@ }}
\@writefile{toc}{\contentsline {section}{\numberline {7.1}First things first}{11}{section.7.1}}
\@writefile{toc}{\contentsline {section}{\numberline {7.2}Structure of the files}{11}{section.7.2}}
\@writefile{toc}{\contentsline {section}{\numberline {7.3}Writing the content}{11}{section.7.3}}
\@writefile{lot}{\contentsline {table}{\numberline {7.1}{\ignorespaces An example table}}{12}{table.7.1}}
\newlabel{tab:example-table}{{7.1}{12}{An example table\relax }{table.7.1}{}}
\newlabel{sec:title}{{7.3}{12}{Writing the content\relax }{Item.3}{}}
\@writefile{toc}{\contentsline {section}{\numberline {7.4}Finding out more}{12}{section.7.4}}
\newlabel{sec:more}{{7.4}{12}{Finding out more\relax }{section.7.4}{}}
\@writefile{toc}{\contentsline {section}{\numberline {7.5}Finally}{12}{section.7.5}}
\@writefile{toc}{\contentsline {chapter}{\numberline {A}Glossary}{13}{appendix.A}}
\@writefile{lof}{\addvspace {10\p@ }}
\@writefile{lot}{\addvspace {10\p@ }}
\@writefile{toc}{\contentsline {chapter}{\numberline {B}Analysis Models}{14}{appendix.B}}
\@writefile{lof}{\addvspace {10\p@ }}
\@writefile{lot}{\addvspace {10\p@ }}
\@writefile{toc}{\contentsline {chapter}{\numberline {C}Issues List}{15}{appendix.C}}
\@writefile{lof}{\addvspace {10\p@ }}
\@writefile{lot}{\addvspace {10\p@ }}
