\contentsline {section}{LIST OF FIGURES}{ii}{section*.5}
\contentsline {chapter}{\numberline {1}Introduction}{1}{chapter.1}
\contentsline {section}{\numberline {1.1}Purpose}{1}{section.1.1}
\contentsline {section}{\numberline {1.2}Document Conventions}{1}{section.1.2}
\contentsline {section}{\numberline {1.3}Intended Audience and Reading Suggestions}{1}{section.1.3}
\contentsline {section}{\numberline {1.4}Project Scope}{2}{section.1.4}
\contentsline {section}{\numberline {1.5}References}{2}{section.1.5}
\contentsline {chapter}{\numberline {A}Glossary}{3}{appendix.A}
