\relax 
\providecommand\HyperFirstAtBeginDocument{\AtBeginDocument}
\HyperFirstAtBeginDocument{\ifx\hyper@anchor\@undefined
\global\let\oldcontentsline\contentsline
\gdef\contentsline#1#2#3#4{\oldcontentsline{#1}{#2}{#3}}
\global\let\oldnewlabel\newlabel
\gdef\newlabel#1#2{\newlabelxx{#1}#2}
\gdef\newlabelxx#1#2#3#4#5#6{\oldnewlabel{#1}{{#2}{#3}}}
\AtEndDocument{\ifx\hyper@anchor\@undefined
\let\contentsline\oldcontentsline
\let\newlabel\oldnewlabel
\fi}
\fi}
\global\let\hyper@last\relax 
\gdef\HyperFirstAtBeginDocument#1{#1}
\providecommand\HyField@AuxAddToFields[1]{}
\@input{inside_cover.aux}
\@writefile{toc}{\contentsline {section}{LIST OF FIGURES}{ii}{section*.5}}
\@writefile{toc}{\contentsline {chapter}{\numberline {1}Introduction}{1}{chapter.1}}
\@writefile{lof}{\addvspace {10\p@ }}
\@writefile{lot}{\addvspace {10\p@ }}
\@writefile{toc}{\contentsline {section}{\numberline {1.1}Purpose}{1}{section.1.1}}
\@writefile{toc}{\contentsline {section}{\numberline {1.2}Document Conventions}{1}{section.1.2}}
\@writefile{toc}{\contentsline {section}{\numberline {1.3}Intended Audience and Reading Suggestions}{1}{section.1.3}}
\@writefile{toc}{\contentsline {section}{\numberline {1.4}Project Scope}{2}{section.1.4}}
\@writefile{toc}{\contentsline {section}{\numberline {1.5}References}{2}{section.1.5}}
\@writefile{toc}{\contentsline {chapter}{\numberline {A}Glossary}{3}{appendix.A}}
\@writefile{lof}{\addvspace {10\p@ }}
\@writefile{lot}{\addvspace {10\p@ }}
